{
  "freestyleJobs": {
    "job": [
      {
        "name": "Gradle",
        "scm": "https://anunaykumar73@bitbucket.org/anunaykumar73/myprojects.git",
        "cmdln": "gradle build --scan -s"
      },
      {
        "name": ".NET",
        "scm": "https://anunaykumar73@bitbucket.org/anunaykumar73/calculator.git",
        "cmdln": "msbuild Calculator.csproj /p:OutDir='C:\\Calc-output-pipeline'"
      }
    ]
  }
}